http://farm3.static.flickr.com/2053/2166599298_80c82ca26d.jpg
http://www.nea.gov.sg/cms/pcd/car_image8.gif
http://farm4.static.flickr.com/3048/2690941404_f5a75a4568.jpg
http://farm3.static.flickr.com/2200/1562305641_7e37719fc0.jpg
http://farm4.static.flickr.com/3096/2436911895_43acf498d0.jpg
http://www.scienceclarified.com/everyday/images/scet_02_img0125.jpg
http://www.vehicle-tracker.org.uk/images/vehicle-tracker-norfolk.jpg
http://img.alibaba.com/photo/12035691/Ev_Electric_Vehicle_Electric_Car.jpg
http://farm3.static.flickr.com/2420/2252055675_1ec3de9c46.jpg
http://farm4.static.flickr.com/3223/2716629316_7997d2174f.jpg
http://farm4.static.flickr.com/3146/2716595106_b48cab5f59.jpg
http://farm1.static.flickr.com/29/90623098_7730e7e18e.jpg
http://farm4.static.flickr.com/3216/2416297192_b4ff2a87d8.jpg
http://farm4.static.flickr.com/3079/2665649099_1d6ec31382.jpg
http://farm1.static.flickr.com/19/103660865_b43c8c546b.jpg
http://farm3.static.flickr.com/2035/2431313043_0726effd05.jpg
http://farm2.static.flickr.com/1224/1352720934_deb4adf4ab.jpg
http://farm4.static.flickr.com/3077/2501524454_d8211c06e2.jpg
http://farm1.static.flickr.com/3/3923357_379f9dc85c.jpg
http://farm3.static.flickr.com/2177/2301208681_e0745cbe6f.jpg
http://farm3.static.flickr.com/2089/2223486544_e97f6301fd.jpg
http://static.flickr.com/1293/1213526560_8b1ed79881.jpg
http://farm4.static.flickr.com/3116/2494857142_c045b4f429.jpg
http://farm4.static.flickr.com/3068/2350296816_fc50509a30.jpg
http://farm4.static.flickr.com/3195/2690113895_507f0fb71a.jpg
http://farm3.static.flickr.com/2082/1511496824_dc0db55c89.jpg
http://farm4.static.flickr.com/3289/2521350892_0ca1728548.jpg
http://farm4.static.flickr.com/3140/2630127433_41756775c0.jpg
http://farm3.static.flickr.com/2365/1719163879_e056918f46.jpg
http://farm1.static.flickr.com/157/432645478_aafd3c6eba.jpg
http://farm3.static.flickr.com/2021/2453637553_fe55e7eb27.jpg
http://farm4.static.flickr.com/3093/2286674243_e46f8b14f4.jpg
http://farm3.static.flickr.com/2417/2396145206_e5d0384c39.jpg
http://www.carsonline.com.au/Abarth%20_1971_A112%20Autobianchi.jpg
http://dlrsp.com/vins/dealercars/Brigham%20Gill%20Motorcars/r3773.jpg
http://farm3.static.flickr.com/2381/2593204460_b0167794ae.jpg
http://farm4.static.flickr.com/3001/2287252189_404edf5b91.jpg
http://farm3.static.flickr.com/2180/2464092263_06384b6ee5.jpg
http://farm4.static.flickr.com/3291/2660942655_3706226a41.jpg
http://farm3.static.flickr.com/2365/2434443162_df523ce0da.jpg
http://farm3.static.flickr.com/2225/2224374998_6fdb07f4da.jpg
http://farm3.static.flickr.com/2039/2331812960_f3684ae49e.jpg
http://www.chesterautobody.com/sitebuildercontent/sitebuilderpictures/0000023.jpg
http://farm4.static.flickr.com/3056/2715742661_8dcf7eb951.jpg
http://farm4.static.flickr.com/3197/2724233665_47db8bb54b.jpg
http://www.autopi.com/images/brokedown.jpg
http://farm3.static.flickr.com/2307/2501186039_d2a20e108c.jpg
http://farm3.static.flickr.com/2279/2431152745_eecfa49641.jpg
http://www.alarmsandsecurity.net/vehicle/car_01.jpg
http://farm4.static.flickr.com/3015/2592422763_333c4fd8a0.jpg
http://farm3.static.flickr.com/2306/2431968404_7b6f24e053.jpg
http://www.alfacollection.altervista.org/duetto_file/image006.jpg
http://farm4.static.flickr.com/3011/2288154692_ee16396db6.jpg
http://static.flickr.com/2392/1794426799_eabec2e80d.jpg
http://farm4.static.flickr.com/3260/2632801887_9d23b33a52.jpg
http://farm4.static.flickr.com/3179/2648659315_3c36a847d7.jpg
http://farm4.static.flickr.com/3123/2600176544_f5a87483d9.jpg
http://farm3.static.flickr.com/2086/2391798095_ef0ea879f3.jpg
http://www.autorai.nl/images/NewsItems/Medium/Image1-20050126092746.jpg
http://farm4.static.flickr.com/3157/2666618477_8340034b6b.jpg
http://www.personallyyours.co.uk/info/7B.JPG
http://static.flickr.com/22/29891873_dc3d851b1d.jpg
http://www.adsonwheels.com/images/zoom/vehiclewraps/thumbs/van_vehicle_wraps_car_graphics_207.jpg
http://farm4.static.flickr.com/3082/2580104716_2afc272a8e.jpg
http://farm3.static.flickr.com/2410/2432102616_f839644721.jpg
http://farm2.static.flickr.com/1213/1162096850_eebe47a541.jpg
http://www.scoobyblog.com/wp-content/uploads/2006/06/Legacy%20cop%20car.jpg
http://farm3.static.flickr.com/2190/2277657499_ea95710ab5.jpg
http://farm1.static.flickr.com/57/222405263_de553bc946.jpg
http://www.autosport.nl/cms/images/stories/2005/Essen_motor_show/ferrari_3027.jpg
http://farm4.static.flickr.com/3296/2508563797_7da0a8cb99.jpg
http://farm4.static.flickr.com/3288/2432044090_66f5449b20.jpg
http://farm4.static.flickr.com/3233/2492381436_5e2421fd62.jpg
http://farm3.static.flickr.com/2163/2183294396_e437a4f162.jpg
http://farm2.static.flickr.com/1404/1389097703_1c43b0bf0e.jpg
http://farm4.static.flickr.com/3256/2560249338_f76ff4c0a9.jpg
http://www.jaunted.com/files/admin/rental_car.jpg
http://farm4.static.flickr.com/3288/2685497486_0706dd9d82.jpg
http://farm3.static.flickr.com/2220/2467352715_a292bd40e7.jpg
http://farm4.static.flickr.com/3148/2583556570_6bf3197b8c.jpg
http://farm3.static.flickr.com/2406/2491561321_2cd6f04f1e.jpg
http://farm3.static.flickr.com/2352/2384365200_c1ecaf5ff0.jpg
http://farm4.static.flickr.com/3157/2645164933_52eefa0e10.jpg
http://farm4.static.flickr.com/3268/2661664016_2be5d991b6.jpg
http://farm3.static.flickr.com/2069/2416298958_8f4fed3ca5.jpg
http://farm4.static.flickr.com/3022/2656702738_1208bbe13f.jpg
http://farm3.static.flickr.com/2092/2433831441_cfcebfa177.jpg
http://www.5hundredcup.com/autovettura5.png
http://farm3.static.flickr.com/2170/2223452674_a1f5d57d39.jpg
http://farm3.static.flickr.com/2020/2413834942_907709e5ac.jpg
http://www.cynical-c.com/archives/bloggraphics/pho_spl1.jpg
http://farm3.static.flickr.com/2167/2434442262_bdda5180d6.jpg
http://farm4.static.flickr.com/3256/2630127249_81a4eb6d90.jpg
http://farm4.static.flickr.com/3188/2589437780_5b2100db77.jpg
http://farm2.static.flickr.com/1138/606170654_565f6e141d.jpg
http://www.webwombat.com.au/motoring/images/mitsubishi-evo-X-4-big.jpg
http://www.mitoalfaromeo.com/html/images/155cc.jpg
http://farm2.static.flickr.com/1139/1165014323_6ace54db2e.jpg
http://www.subaruwrx.com/Images/wrxcop01.jpg
http://farm3.static.flickr.com/2387/2512767245_d0b93314ed.jpg
http://farm1.static.flickr.com/236/1510993471_913a3912b9.jpg
http://www.portev.org/solectria/kaukauna/car.jpg
http://img.trovit.com/img-it_auto-P0136247c374f019743.jpg
http://farm4.static.flickr.com/3235/2700932397_3f59823f7f.jpg
http://www.auto-sep.com/images/nuova%20bravo%201.jpg
http://www.altfuels.org/events/autoshow/graphics/hummrh2h.jpg
http://lh6.ggpht.com/_3_symOHvt0w/RnEDF_cZSlI/AAAAAAAACiM/MPhHGQvncKs/DSCF6200.JPG
http://farm1.static.flickr.com/29/48840253_c49074d342.jpg
http://static.flickr.com/2324/2091352807_bf8a1f8019.jpg
http://static.flickr.com/1295/977074978_23dc5a4037.jpg
http://farm4.static.flickr.com/3097/2648602199_33653b9938.jpg
http://farm4.static.flickr.com/3228/2514077768_74511f44e0.jpg
http://farm4.static.flickr.com/3005/2619345247_d9fc17075e.jpg
http://www.adsonwheels.com/images/zoom/vehiclewraps/thumbs/pt_cruiser_vehicle_wraps_car_graphics_071.jpg
http://farm3.static.flickr.com/2026/2223401114_f2a7e06409.jpg
http://farm3.static.flickr.com/2107/2511386544_d1590e73f7.jpg
http://farm4.static.flickr.com/3078/2319796787_182fd8aa2b.jpg
http://i22.ebayimg.com/05/m/000/91/75/40c9_18.JPG
http://farm4.static.flickr.com/3009/2711432865_c3b065723f.jpg
http://farm4.static.flickr.com/3271/2582731193_a886051e98.jpg
http://farm4.static.flickr.com/3281/2655497620_25423295f0.jpg
http://farm4.static.flickr.com/3091/2431953058_bea1d98f76.jpg
http://farm3.static.flickr.com/2350/2223453858_89496c505a.jpg
http://www.kunis.nl/cars/mercedes.jpg
http://farm4.static.flickr.com/3149/2697548163_4150a9abd6.jpg
http://farm4.static.flickr.com/3060/2491562381_9f18dd7d6f.jpg
http://farm4.static.flickr.com/3212/2735190644_5378375a28.jpg
http://farm2.static.flickr.com/1060/1352744288_1917f1807f.jpg
http://farm4.static.flickr.com/3230/2431149099_6ce32c4762.jpg
http://farm4.static.flickr.com/3170/2630841172_1713a4148c.jpg
http://farm4.static.flickr.com/3268/2589749852_68c3c02dec.jpg
http://farm4.static.flickr.com/3109/2586480449_a32cce2373.jpg
http://static.flickr.com/226/487760417_4309349f59.jpg
http://farm4.static.flickr.com/3052/2509761183_ae82867f65.jpg
http://static.flickr.com/2236/2060359539_549fb9191a.jpg
http://farm4.static.flickr.com/3234/2599214791_fef7f7f29c.jpg
http://farm4.static.flickr.com/3195/2452533800_2bc256f369.jpg
http://farm2.static.flickr.com/1301/1380983276_5ee6d4b24f.jpg
http://farm4.static.flickr.com/3018/2698407298_857a7ed050.jpg
http://farm3.static.flickr.com/2294/2431997348_783e5d504d.jpg
http://img.trovit.com/img-it_auto-P015d8f4818b333d9c4f.jpg
http://farm4.static.flickr.com/3295/2466037491_2359298273.jpg
http://farm4.static.flickr.com/3260/2655494038_4a25e8e1c8.jpg
http://farm1.static.flickr.com/56/141953618_f07ba9c97b.jpg
http://upload.wikimedia.org/wikipedia/commons/3/34/Talbothorizon.jpg
http://farm3.static.flickr.com/2381/1830349630_4a780c6001.jpg
http://farm2.static.flickr.com/1146/1389584114_6a02e10c09.jpg
http://farm3.static.flickr.com/2096/2492384358_3711e9a30c.jpg
http://farm4.static.flickr.com/3062/2715773719_54a8513c0c.jpg
http://farm4.static.flickr.com/3127/2492386918_c076dd955e.jpg
http://farm4.static.flickr.com/3180/2708500152_1946cdaa00.jpg
http://farm4.static.flickr.com/3043/2632810353_ef6a7bb5ee.jpg
http://farm1.static.flickr.com/24/60424045_d15db2b71a.jpg
http://farm1.static.flickr.com/139/374294882_6a5cc96ffb.jpg
http://a.abcnews.com/images/US/ap_nissan_urge_060109_ssh.jpg
http://farm4.static.flickr.com/3025/2707700467_c24c37dea5.jpg
http://farm4.static.flickr.com/3173/2451494761_39155daeea.jpg
http://www.bedfordcarsales.co.uk/images/159/bmw8.jpg
http://farm4.static.flickr.com/3178/2715810931_648aa512c2.jpg
http://farm4.static.flickr.com/3240/2599723500_85b30b9305.jpg
http://farm1.static.flickr.com/82/205860798_988a41d311.jpg
http://farm3.static.flickr.com/2372/2454464852_93202af2ca.jpg
http://www.imagecows.com/uploads/ed48-VFV_concept_car.jpg
http://farm3.static.flickr.com/2097/2404721439_596fc67467.jpg
http://farm4.static.flickr.com/3168/2661759206_af6257ea40.jpg
http://images.publicradio.org/content/2007/02/02/20070202_smartcar_2.jpg
http://farm4.static.flickr.com/3248/2715757519_10af1304e3.jpg
http://farm3.static.flickr.com/2133/1719233384_e4a9d0116b.jpg
http://farm1.static.flickr.com/107/265690805_6b0ea343ff.jpg
http://farm1.static.flickr.com/91/222396341_1acfd0c15b.jpg
http://farm4.static.flickr.com/3208/2445569570_a86e6b644f.jpg
http://farm3.static.flickr.com/2184/2223408680_e5de8a0d0c.jpg
http://www.electrocom.com.au/images/hyperx_car_VL2AT1BBHI.jpg
http://www.raf-upper-heyford.org/ColThompsonStaffCar.jpg
http://static.flickr.com/230/459982742_e4760a3b8e.jpg
http://farm3.static.flickr.com/2384/2224840210_82056da8fe.jpg
http://farm1.static.flickr.com/57/179115029_f49efd6022.jpg
http://farm2.static.flickr.com/1379/1165879790_9858ac5c7a.jpg
http://static.flickr.com/22/92520711_360ad76a6b.jpg
http://farm3.static.flickr.com/2378/1719163907_860883cbe8.jpg
http://farm3.static.flickr.com/2041/2060217143_9725741a28.jpg
http://static.flickr.com/2301/2061069980_a1b87aaef1.jpg
http://farm4.static.flickr.com/3043/2576400220_27b005d234.jpg
http://www.autoscuolacarnevale.it/Imag/Veicoli/Foto_Veic_02.jpg
http://farm4.static.flickr.com/3019/2632793482_28320992cf.jpg
http://www.auto55.be/assets/200805/32410/page_normal/mca-ala-1.jpg
http://farm4.static.flickr.com/3097/2476598462_f5a95c12e4.jpg
http://farm2.static.flickr.com/1079/1246340284_e8bbcd9e39.jpg
http://farm4.static.flickr.com/3126/2388043510_1d48ed077d.jpg
http://www.autopanorama.ru/gallery/PeugeotHoggar/peugeot-hoggar-1-1024.jpg
http://static.flickr.com/1124/1252931152_ce4f4cfd06.jpg
http://carlogosinc.com/images/car1_q6to.jpg
http://farm2.static.flickr.com/1403/1165884766_81be2d6d33.jpg
http://www.lacasagiusta.it/idea-regalo-casa-cucina-vendita/shopping/images/Aquilani/box-auto-singolo.jpg
http://www.surreycc.gov.uk/SCCWebsite/SCCWSImages.nsf/WebLookupImageByUNID/docid74C2938C291526EF8025721100396041/$FILE/SID+mounted+on+a+SMART+car.jpg
http://www.caradvice.com.au/wp-content/uploads/2007/11/image40263_b.jpg
http://www.johnnyjet.com/images/PicForMyNewsletterNov22003chicagoWILMETTEPOLICE.jpg
http://farm1.static.flickr.com/131/322180355_76beb2b986.jpg
http://farm1.static.flickr.com/77/195987340_deadffe423.jpg
http://farm3.static.flickr.com/2306/2383370810_bea2b651b8.jpg
http://static.flickr.com/52/145848224_3333ac0525.jpg
http://www.thecarfinders.co.uk/images/2005-Marcos-TSO-GT2-SA-Show-1280x960.jpg
http://farm3.static.flickr.com/2189/2464718848_c2968f7dca.jpg
http://farm3.static.flickr.com/2127/1563220186_9faec39fda.jpg
http://farm3.static.flickr.com/2174/2301463081_053425a102.jpg
http://farm3.static.flickr.com/2382/2236856009_422423d369.jpg
http://static.flickr.com/2420/2061050868_f7b7587748.jpg
http://farm3.static.flickr.com/2381/2492385648_374831ea35.jpg
http://farm4.static.flickr.com/3200/2501509992_d55ccb9fb3.jpg
http://farm2.static.flickr.com/1259/534980886_bad9a81cc9.jpg
http://www.repo-zone.com/images/auto-repo-service.jpg
http://farm3.static.flickr.com/2356/2394209678_f1a2ba20d5.jpg
http://farm4.static.flickr.com/3105/2661785726_240b6f53d8.jpg
http://farm4.static.flickr.com/3271/2697576283_111208602e.jpg
http://farm3.static.flickr.com/2404/2436656258_1da52a58db.jpg
http://farm4.static.flickr.com/3208/2434711906_ce66bb860d.jpg
http://farm3.static.flickr.com/2045/2240081002_938b6c2016.jpg
http://farm4.static.flickr.com/3238/2432129184_2a6364edeb.jpg
http://farm4.static.flickr.com/3206/2368078345_0d96590a79.jpg
http://farm4.static.flickr.com/3276/2691656689_5eb6ee4578.jpg
http://farm1.static.flickr.com/45/141951643_26c01b3de4.jpg
http://altijdeenmening.web-log.nl/photos/uncategorized/connx9jdjdsc00781.jpg
http://static.flickr.com/1091/1259461539_7fccdccdcc.jpg
http://farm4.static.flickr.com/3019/2583556056_b14b1005f5.jpg
http://farm3.static.flickr.com/2031/2063729533_d4cf1a5543.jpg
http://farm2.static.flickr.com/1349/1165027445_ab29f04271.jpg
http://farm3.static.flickr.com/2405/1562293599_73e52f94fa.jpg
http://photos4.meetupstatic.com/photos/event/c/8/1/2/highres_1491218.jpeg
http://static.flickr.com/50/141660312_9b3900d0ed.jpg
http://static.flickr.com/2/3347024_293ada0bd9.jpg
http://farm1.static.flickr.com/168/365460720_a47f654fc9.jpg
http://farm4.static.flickr.com/3042/2649449358_fed712e03d.jpg
http://farm3.static.flickr.com/2174/2176686754_a1c6c08328.jpg
http://farm4.static.flickr.com/3043/2600019140_67b6c145c2.jpg
http://farm4.static.flickr.com/3071/2632820779_179762c0c9.jpg
http://farm4.static.flickr.com/3110/2600369932_04f0f6f4bb.jpg
http://www.babybentleylimohire.co.uk/bentley_images/bentley%20limousine%20hire,bentley%20limo%20hire,%20bentley%20limo%20hire/bentley-wedding-car-hire.jpg
http://farm3.static.flickr.com/2288/2480557160_14355f0707.jpg
http://farm4.static.flickr.com/3218/2600152632_6d4f1d7f4b.jpg
http://farm1.static.flickr.com/44/106874502_e955e102f0.jpg
http://farm1.static.flickr.com/91/230965538_f8ef1b02a9.jpg
http://farm3.static.flickr.com/2352/2385341496_c588fe643d.jpg
http://static.flickr.com/78/208829193_51bf67fbe6.jpg
http://farm3.static.flickr.com/2300/2260257704_415f5ea60a.jpg
http://farm3.static.flickr.com/2394/2470021123_35f6f8abbd.jpg
http://farm2.static.flickr.com/1113/1344191937_6ee9102873.jpg
http://farm2.static.flickr.com/1326/937842740_50d25f2411.jpg
http://farm2.static.flickr.com/1019/1093659445_49aabcd657.jpg
http://farm3.static.flickr.com/2065/2463666801_245fdc951b.jpg
http://farm4.static.flickr.com/3262/2301437541_67750ee3e7.jpg
http://farm4.static.flickr.com/3120/2694724051_6838b26d06.jpg
http://farm2.static.flickr.com/1228/946882280_a3d7fae6bc.jpg
http://farm3.static.flickr.com/2339/2198102005_b462b39747.jpg
http://farm3.static.flickr.com/2092/2278436410_7bb0cd85c1.jpg
http://farm2.static.flickr.com/1304/1093717817_965c000487.jpg
http://farm4.static.flickr.com/3052/2655874443_2f481d2ef9.jpg
http://static.flickr.com/2030/2060051647_508ac196b5.jpg
http://static.flickr.com/3170/2477840541_4d9a81149c.jpg
http://farm4.static.flickr.com/3140/2414416688_007e1d6707.jpg
http://farm3.static.flickr.com/2329/2252854126_fb10c081d6.jpg
http://farm3.static.flickr.com/2336/2301196459_b337e86bc7.jpg
http://farm4.static.flickr.com/3102/2580085600_5e0cd8aba0.jpg
http://farm2.static.flickr.com/1133/1389225323_63fd924659.jpg
http://farm2.static.flickr.com/1223/1165862392_77c310a2bc.jpg
http://static.flickr.com/1296/1354249331_0293fcd423.jpg
http://www.troyangrignon.com/SmartCarRallye.bmp
http://farm3.static.flickr.com/2302/1700378831_db202ab909.jpg
http://farm3.static.flickr.com/2090/2395208531_70dd2822b1.jpg
http://farm3.static.flickr.com/2079/2307489487_1174478b88.jpg
http://farm4.static.flickr.com/3241/2620609664_fbcf001f21.jpg
http://farm4.static.flickr.com/3063/2618342543_f17930290a.jpg
http://farm3.static.flickr.com/2084/2223405588_ea8b7aab2d.jpg
http://static.flickr.com/1430/898353023_03c58d0c93.jpg
http://farm4.static.flickr.com/3255/2589199493_fca6f32109.jpg
http://farm4.static.flickr.com/3189/2578994659_aabf8ba386.jpg
http://farm4.static.flickr.com/3018/2572249513_ba76b2b8e6.jpg
http://farm4.static.flickr.com/3121/2630234373_7ae93191d0.jpg
http://farm2.static.flickr.com/1145/1410830620_2efe7370c2.jpg
http://farm2.static.flickr.com/1095/1171879907_0b9c6f9388.jpg
http://www.poliziadistato.it/pds/chisiamo/storia/autostoriche/images/alfaromeo_ti_1900_super_big.jpg
http://farm4.static.flickr.com/3029/2666520766_d3ab7762ae.jpg
http://static.flickr.com/1095/1259513947_cfff1b7336.jpg
http://farm4.static.flickr.com/3272/2625904365_91d9e55d10.jpg
http://www.audiblog.nl/wp-content/audi-q31.jpg
http://farm2.static.flickr.com/1085/1389773426_78e0b09db1.jpg
http://farm4.static.flickr.com/3152/2655559146_e61e45a3e5.jpg
http://www.rpefcu.org/Loans/auto%20loans.jpg
http://www.abcsignsource.com/nss-folder/vehicle/matts%20car%20and%20graphics.JPG
http://farm4.static.flickr.com/3232/2691751663_2aa5f2b6ef.jpg
http://farm2.static.flickr.com/1372/1165002591_c654457746.jpg
http://farm4.static.flickr.com/3085/2431297731_c6b347a87d.jpg
http://farm4.static.flickr.com/3078/2627107164_193b6ba03c.jpg
http://www.edgecharter.co.uk/images/db6autoterms.jpg
http://farm4.static.flickr.com/3263/2512760701_8cbe2ed2fd.jpg
http://farm4.static.flickr.com/3175/2633668806_2b68667020.jpg
http://farm1.static.flickr.com/55/160484873_8cfdf2d558.jpg
http://pictures.autotrader.nl/servlet/media?id=28292453
http://farm4.static.flickr.com/3064/2432091658_c9e19cf1f8.jpg
http://static.flickr.com/2271/2060355619_4171747795.jpg
http://farm4.static.flickr.com/3062/2666739991_43bc7aed7d.jpg
http://farm3.static.flickr.com/2331/2204514463_b1057ee4b1.jpg
http://farm2.static.flickr.com/1388/1389215277_a3ff1b414d.jpg
http://farm3.static.flickr.com/2219/2470175633_8ea08930d0.jpg
http://farm2.static.flickr.com/1389/1094546448_acf04b98fc.jpg
http://farm2.static.flickr.com/1145/1093721321_c0ab4dbcd6.jpg
http://farm4.static.flickr.com/3142/2513290185_66c46228bc.jpg
http://www.access-auto.com/oac/image.php?Id=14
http://static.flickr.com/171/473811436_2f5e2282b5.jpg
http://seeacar.net/images/24.jpg
http://farm1.static.flickr.com/123/418134617_e9a3832389.jpg
http://farm4.static.flickr.com/3255/2599236373_8f7c7a6512.jpg
http://farm4.static.flickr.com/3184/2598186961_f41328a410.jpg
http://www.wcoty.com/upload/images/vehicle_108.jpg
http://farm4.static.flickr.com/3187/2667618782_60409c15f2.jpg
http://farm4.static.flickr.com/3046/2655426148_a49a7ed8f4.jpg
http://static.flickr.com/1362/1143607487_5224eac01b.jpg
http://www.customcarland.com/wp-content/uploads/2008/01/chrome_rims_could_get_your_car_stolen.jpg
http://allworldcars.com/wordpress/wp-content/uploads/2007/08/small-car-crash.jpg
http://farm1.static.flickr.com/32/47394454_10e6d7fd6d.jpg
http://static.flickr.com/1199/1260326450_01fefc2d7a.jpg
http://farm3.static.flickr.com/2123/1829505931_7ae741bf04.jpg
http://z.about.com/d/weather/1/7/j/1/-/-/caldwell2.jpg
http://farm4.static.flickr.com/3220/2604149964_065b86f906.jpg
http://farm4.static.flickr.com/3211/2603360993_5cc7b8f39f.jpg
http://farm4.static.flickr.com/3016/2576210282_0ee893b068.jpg
http://www.autobiermans.nl/upload/algemeen/nuova500.jpg
http://www.zeenz.nl/images/uploads/deathproofznz.jpg
http://farm4.static.flickr.com/3168/2676976763_4ea14b3d7e.jpg
http://farm1.static.flickr.com/82/222362081_bff686930b.jpg
http://www.polizia-penitenziaria.it/notizie/immagini/cinofili/Il%20controllo%20su%20un'autovettura.JPG
http://farm3.static.flickr.com/2395/1749800090_571cc05619.jpg
http://farm1.static.flickr.com/14/19416421_7be9061340.jpg
http://www.adsonwheels.com/images/zoom/vehiclewraps/thumbs/pt_cruiser_vehicle_wraps_car_graphics_115.jpg
http://farm4.static.flickr.com/3253/2590826895_944030e439.jpg
http://farm1.static.flickr.com/89/245029135_b1174db8be.jpg
http://static.flickr.com/79/222395559_22803c1b22.jpg
http://www.designerysigns.com/images/product/vehicle-graphics-race-car-graphics.jpg
http://farm1.static.flickr.com/52/153488067_a64a8eafa0.jpg
http://farm4.static.flickr.com/3233/2614832393_b9606f4e37.jpg
http://www.soultek.com/images/cadillac_escalade_hybrid_vehicle_la_auto_show.jpg
http://farm4.static.flickr.com/3191/2691435561_19680a057a.jpg
http://farm3.static.flickr.com/2359/2431260901_d97aa49f22.jpg
http://farm3.static.flickr.com/2280/2392381000_3191ed0218.jpg
http://farm3.static.flickr.com/2287/2470195397_86ec8c95fe.jpg
http://farm4.static.flickr.com/3194/2286668095_f1c439cf37.jpg
http://farm1.static.flickr.com/164/405921792_257dbe7fe1.jpg
http://farm4.static.flickr.com/3114/2383394300_a397e9cc00.jpg
http://www.adsonwheels.com/images/zoom/vehiclewraps/thumbs/suv_vehicle_wraps_car_graphics_224.jpg
http://media.panorama.it/media/foto/2008/04/08/482f59327a289_zoom.jpg
http://farm1.static.flickr.com/27/47635237_1e85ffaf2e.jpg
http://farm3.static.flickr.com/2310/2359095828_4b590d9ec7.jpg
http://farm4.static.flickr.com/3208/2708301392_e438b30e22.jpg
http://www.finecars.cc/typo3temp/GB/c1928696e1.jpg
http://farm1.static.flickr.com/39/87449323_6137299340.jpg
http://www.bluecycle.com/home_img/auction_car.jpg
http://static.flickr.com/21/29891979_f7bdab6c6d.jpg
http://static.flickr.com/24/56816502_1e5c049d52.jpg
http://farm4.static.flickr.com/3095/2501523650_d30e174891.jpg
http://farm3.static.flickr.com/2149/2421547516_33b175945d.jpg
http://farm4.static.flickr.com/3237/2392047798_22c55fa7d3.jpg
http://farm4.static.flickr.com/3218/2590939229_e322b52f53.jpg
http://farm3.static.flickr.com/2250/2277579909_b26330a04b.jpg
http://farm2.static.flickr.com/1215/1389100435_024f76d449.jpg
http://www.blog.automotiveaddicts.com/wp-content/uploads/2008/01/holden-crewman-3.jpg
http://farm2.static.flickr.com/1134/1165856234_bd74f0aa8e.jpg
http://static.flickr.com/2146/2116965763_923c90ee33.jpg
http://farm4.static.flickr.com/3058/2570822777_30d2c5d3cc.jpg
http://static.flickr.com/2229/2060296611_9d995339f2.jpg
http://static.flickr.com/91/232022607_2531bc2e60.jpg
http://farm3.static.flickr.com/2024/2492380768_8d8ba5c514.jpg
http://farm4.static.flickr.com/3002/2579279285_639c08f92e.jpg
http://farm3.static.flickr.com/2146/2210935418_385afb4069.jpg
http://farm1.static.flickr.com/121/289434513_f53212d37a.jpg
http://farm1.static.flickr.com/77/153487802_65a8a2cd0a.jpg
http://farm4.static.flickr.com/3265/2619327487_017fededca.jpg
http://farm4.static.flickr.com/3166/2625813072_f2ab63d520.jpg
http://farm3.static.flickr.com/2397/2431219569_376722db1c.jpg
http://www.tacn.nl/images/carinapix/carinata14feikens.jpg
http://farm4.static.flickr.com/3114/2692553168_7f46d8d5f6.jpg
http://farm4.static.flickr.com/3179/2692569314_51c1eb366f.jpg
http://farm2.static.flickr.com/1438/1388887989_256d04b6f8.jpg
http://farm1.static.flickr.com/100/285526431_0841339810.jpg
http://farm1.static.flickr.com/170/459125748_8bea02237d.jpg
http://farm2.static.flickr.com/1403/1165013475_1e5ca2b9dd.jpg
http://www.pastimemotors.com/_admin_v1/_images/auto_listings/large/856ImageSub1_ID.jpg
http://farm2.static.flickr.com/1409/1165019393_8a684e1970.jpg
http://farm4.static.flickr.com/3288/2709356954_e5e984aab2.jpg
http://static.flickr.com/2403/2060949468_b446cda9cd.jpg
http://farm3.static.flickr.com/2345/2098174192_faaef6d080.jpg
http://upload.wikimedia.org/wikipedia/commons/thumb/b/be/Ferrari_599_GTB_Fiorano.jpg/800px-Ferrari_599_GTB_Fiorano.jpg
http://farm3.static.flickr.com/2419/2238642981_9b9a6b5e8e.jpg
http://farm1.static.flickr.com/70/199150858_6f444f63bf.jpg
http://www.chrome.nl/user/Image/rallygroot2.jpg
http://farm3.static.flickr.com/2310/2483148791_79d334bfb0.jpg
http://farm4.static.flickr.com/3193/2620616198_82b7a4c430.jpg
http://farm4.static.flickr.com/3030/2590057056_eb3da558fa.jpg
http://farm4.static.flickr.com/3178/2615671272_b620115fec.jpg
http://www.autospectator.com/cars/files/images/DG008_019CA__mid.jpg
http://farm2.static.flickr.com/1216/1165872472_79675781ec.jpg
http://farm3.static.flickr.com/2233/2483960610_caf6dbff5d.jpg
http://farm4.static.flickr.com/3198/2601664412_6147df0183.jpg
http://farm4.static.flickr.com/3031/2708361679_fd4f9e128f.jpg
http://farm3.static.flickr.com/2057/2302281914_4d60879f69.jpg
http://farm4.static.flickr.com/3288/2697590827_ffed423ebc.jpg
http://farm3.static.flickr.com/2273/2252853368_aca02d46ac.jpg
http://picnic.ciao.com/it/222757.jpg
http://farm3.static.flickr.com/2326/2413515573_f986bf2b82.jpg
http://img.xgo.com.cn/17_500x375/16937.jpg
http://farm4.static.flickr.com/3267/2708631349_52689879b0.jpg
http://farm4.static.flickr.com/3100/2547437841_e99993e071.jpg
http://www.sunyjcc.edu/college-wide/safety/parking/car.jpg
http://farm4.static.flickr.com/3249/2684679529_97ccf686de.jpg
http://farm3.static.flickr.com/2273/2210892916_cf13b68b8a.jpg
http://farm2.static.flickr.com/1437/1165020355_457c2ab8ae.jpg
http://farm4.static.flickr.com/3164/2626215739_21b236b5a9.jpg
http://farm3.static.flickr.com/2412/2349463783_800411301e.jpg
http://farm4.static.flickr.com/3180/2590036126_813f4ec340.jpg
http://static.flickr.com/46/120508333_c13ad93915.jpg
http://farm4.static.flickr.com/3106/2597996806_11068926bd.jpg
http://farm3.static.flickr.com/2389/2439114272_36ea943070.jpg
http://farm2.static.flickr.com/1311/1389196489_232f7351b5.jpg
http://farm2.static.flickr.com/1309/1352679678_74511f4eed.jpg
http://farm4.static.flickr.com/3080/2702189818_fc0dda5a7e.jpg
http://farm3.static.flickr.com/2269/2537744441_5ec98d3e75.jpg
http://farm1.static.flickr.com/26/89070117_7a7a3c9a3d.jpg
http://www.rubbish.net/wp-content/uploads/2007/11/scrap-car-collection-disposal1.jpg
http://farm3.static.flickr.com/2103/1562287869_6d7972c72a.jpg
http://www.marotaxaties.nl/Fotos/Portfolio/260Clv.jpg
http://farm4.static.flickr.com/3058/2586427847_be81a6ff77.jpg
http://i24.ebayimg.com/06/m/000/7e/c1/1de3_27.JPG
http://static.flickr.com/49/144368243_6af1396af9.jpg
http://farm3.static.flickr.com/2331/2573022852_b19a0f9069.jpg
http://farm3.static.flickr.com/2325/2425247789_de445702fa.jpg
http://farm4.static.flickr.com/3037/2660844099_69884084c3.jpg
http://farm2.static.flickr.com/1367/1165854440_b7cbbf3b9c.jpg
http://static.flickr.com/30/42183271_0231a199a9.jpg
http://farm4.static.flickr.com/3171/2599332519_a6616cdf16.jpg
http://www.psvzuipsite.nl/multitext/pictures/eindhoven/overig_dafphilips7.jpg
http://farm3.static.flickr.com/2246/2600932223_d4b9480383.jpg
http://farm3.static.flickr.com/2286/2483967922_e1c95dd28e.jpg
http://farm4.static.flickr.com/3243/2685506746_07a1e8c94b.jpg
http://farm4.static.flickr.com/3254/2685475508_ebec3958d2.jpg
http://static.blogo.it/autoblog/mercedes_e_class_25.jpg
http://farm3.static.flickr.com/2089/2405552020_ee3df8170e.jpg
http://static.autoblog.nl/images/wp2007/Bugattiveyron-6.jpg
http://farm3.static.flickr.com/2067/2413589437_6e007509eb.jpg
http://farm3.static.flickr.com/2039/2507428095_fd16ed13b6.jpg
http://farm3.static.flickr.com/2397/2501515838_a1ac841d0c.jpg
http://farm4.static.flickr.com/3118/2711322541_1bddda9aba.jpg
http://farm3.static.flickr.com/2116/2660579996_37cb1c6e4e.jpg
http://static.flickr.com/1096/1143428159_067772f3ea.jpg
http://farm3.static.flickr.com/2259/2452059472_e7560deb6d.jpg
http://www.adsonwheels.com/images/zoom/vehiclewraps/thumbs/vehicle_wraps_car_graphics_221.jpg
http://farm3.static.flickr.com/2171/2440204921_0088fcfff9.jpg
http://farm4.static.flickr.com/3033/2413524916_141bc56e3f.jpg
http://www.pompierichiavenna.it/Autovettura_Fiat_600_multipla._Anno_1965_x.jpg
http://images.ciao.com/iit/images/products/normal/761/product-3761.jpg
http://farm4.static.flickr.com/3160/2660552692_718f7c88b8.jpg
http://www.carrozzeriapiave.it/resources/0907102140dscn6213.jpg
http://farm4.static.flickr.com/3119/2702232602_d581df532a.jpg
http://farm2.static.flickr.com/1071/1388705719_7bd386062b.jpg
http://static.flickr.com/2231/2077254915_cc9d2a60cc.jpg
http://farm2.static.flickr.com/1098/1389127753_0c90cae3d8.jpg
http://farm3.static.flickr.com/2331/2384670963_d5028d922f.jpg
http://farm2.static.flickr.com/1195/1089379812_7d1cb75e1c.jpg
http://farm4.static.flickr.com/3292/2456663030_ce9d70facb.jpg
http://farm3.static.flickr.com/2177/2351881434_7769614abc.jpg
http://farm3.static.flickr.com/2105/2501503736_878fc25809.jpg
http://farm3.static.flickr.com/2278/1511668776_efabd4aa08.jpg
http://farm3.static.flickr.com/2206/2301252128_061387e023.jpg
http://farm4.static.flickr.com/3219/2372975052_18475a0e89.jpg
http://pic.66wz.com/0/00/06/18/61822_168163.jpg
http://static.flickr.com/1179/1172022660_cb9da0b227.jpg
http://farm3.static.flickr.com/2172/2658288942_88979800e0.jpg
http://www.fallingpixel.com/products/5180/mains/porsche.jpg
http://www.phonetraders.com/images/VSAT_autoacquire188140.jpg
http://farm1.static.flickr.com/167/459132471_1f8d8560a7.jpg
http://farm3.static.flickr.com/2138/2538560700_5818000192.jpg
http://farm2.static.flickr.com/1127/1484985753_b32709e206.jpg
http://farm4.static.flickr.com/3044/2509447874_0bafcecdd8.jpg
http://farm4.static.flickr.com/3062/2491570647_8d7d23263f.jpg
http://farm4.static.flickr.com/3064/2433900387_78d47fbfa8.jpg
http://farm3.static.flickr.com/2126/2409910715_418ae11a00.jpg
http://professionalautodetail.com/images/HPIM0275.JPG
http://farm4.static.flickr.com/3163/2425247301_c1a7fec874.jpg
http://www.starcarhire.co.uk/images/news_images/news_nytaxi_police_car.jpg
http://www.municipio.re.it/cv/croceverde.nsf/2FC936FEFBB802F3C1256FD400494131/8C68D5461A0C5631C12572040049A39C/$file/Victor%2060_400.jpg
http://farm3.static.flickr.com/2049/2501524524_755f74b335.jpg
http://farm4.static.flickr.com/3065/2586913572_b33aeab62b.jpg
http://farm2.static.flickr.com/1240/1034971301_d754531ab1.jpg
http://www.allaguida.it/img/citroen_saxo_vts.jpg
http://static.flickr.com/2233/2060144231_b30d1ccc22.jpg
http://farm4.static.flickr.com/3007/2666463976_54eedf3bb0.jpg
http://www.imagecows.com/uploads/ac84-audi_cross_cabriolet_quattro_car_1.JPG
http://farm4.static.flickr.com/3122/2628194225_3254e2624d.jpg
http://farm3.static.flickr.com/2397/2429385972_5ac5cc7748.jpg
http://farm2.static.flickr.com/1182/847154336_f782942022.jpg
http://farm1.static.flickr.com/85/222435049_926069b864.jpg
http://farm4.static.flickr.com/3179/2488702587_45607f5dea.jpg
http://farm3.static.flickr.com/2254/2444401499_e777486b05.jpg
